{
    "items": [
	    {
            "link": "UC65IWpXg_K5lsMKjybIX7uQ", 
            "title": "[COLOR aqua]Moj kanal na YouTube[/COLOR]", 
            "fanart": "https://imgur.com/ptAQgTV.jpg", 
            "type": "channel", 
            "icon": "https://iwf1.com/scrapekod/icons/plugin.video.aliundek19.jpe", 
            "summary": "Moj kanal na YouTube"
        },  
		{
            "link": "UCu5jfQcpRLm9xhmlSd5S8xw",
            "title": "[COLOR aqua]Armin van Buuren[/COLOR]", 
            "fanart": "https://imgur.com/ptAQgTV.jpg", 
            "type": "channel", 
            "icon": "https://yt3.ggpht.com/WEmblymxvqfiWbYWhYn7F64UqfJFteSYOnSLZQyrEIucaMHqqLSGWgJHXv85_sbZ4EYH57gy-Q=s176-c-k-c0x00ffffff-no-rj", 
            "summary": "Armin van Buuren"
        },  
	    {
            "link": "https://fuse99.com/xml19/Aliunde.K19.Youtube.Playlists/Handy.Info.main.json", 
            "title": "[COLOR aqua]Handy Info[/COLOR]", 
            "fanart": "https://imgur.com/ptAQgTV.jpg", 
            "type": "dir", 
            "icon": "https://upload.wikimedia.org/wikipedia/commons/thumb/1/18/Circle-information.svg/1200px-Circle-information.svg.png", 
            "summary": "Handy Info"
        }, 
		{
            "link": "https://fuse99.com/xml19/youtube19/aliunde fishingtube main.json", 
            "title": "[COLOR aqua]Aliunde Fishing Tube[/COLOR]", 
            "fanart": "https://imgur.com/MbnHoAJ.jpg", 
            "type": "dir", 
            "icon": "https://imgur.com/0dPzKnn.jpg", 
            "summary": "Aliunde Fishing Tube"
        }, 
        {
            "link": "UCIJnHb6meZoOjKF68h35QgQ", 
            "title": "[COLOR aqua]WWE YouTube Channel[/COLOR]", 
            "fanart": "https://i.ytimg.com/vi/HyoCALwywmk/maxresdefault.jpg", 
            "type": "channel", 
            "icon": "https://yt3.ggpht.com/a/AATXAJywWL7oV3o4EsnANmDIOCIRLiuInjCHazRyVvZoqXY=s144-c-k-c0xffffffff-no-rj-mo", 
            "summary": "WWE YouTube Channel"
        },  
        {
            "link": "UCj_YRYIKoU74x60sSGPw4Ow", 
            "title": "[COLOR aqua]Airshow Stuff Videos[/COLOR]", 
            "fanart": "https://www.enca.com/sites/default/files/2020-04/web_photo_snowbirds_300420.jpg", 
            "type": "channel", 
            "icon": "https://yt3.ggpht.com/a/AATXAJyNFWBJC3k9Yyq2VNJIDwKQELjspGk8ihIxog=s144-c-k-c0xffffffff-no-rj-mo", 
            "summary": "Your source for airshow and aviation news and media, including photos, videos, on-board footage, and more"
        }, 		
        {
            "link": "UC67f2Qf7FYhtoUIF4Sf29cA", 
            "summary": "Bad Lip Reading", 
            "type": "channel", 
            "icon": "https://stillcurtain.com/files/2013/01/BLR-LOGO-BLACK.jpeg", 
            "title": "[COLOR aqua]Bad Lip Reading[/COLOR] "
        }, 
        {
            "link": "UCjN80jRThRVVC1Oz8LmzH5g", 
            "summary": "Christian 33AD", 
            "type": "channel", 
            "icon": "https://yt3.ggpht.com/a/AGF-l7-lWuL0icYZ-JxLIwV6tZzFcKrgiwB2s2q0Ig=s288-c-k-c0xffffffff-no-rj-mo", 
            "title": "[COLOR aqua]Christian 33AD[/COLOR]"
        }, 
		{
            "link": "UC5Vp-DtnzbUvk58iVUNj7fw", 
            "title": "[COLOR aqua]Classic Coronation Street[/COLOR]", 
            "fanart": "https://artworks.thetvdb.com/banners/fanart/original/71565-3_t.jpg", 
            "type": "channel", 
            "thumbnail": "https://artworks.thetvdb.com/banners/posters/71565-2_t.jpg", 
            "summary": "Classic Coronation Street"
        },        
		{
            "link": "UCKX5LotQ8GGmGli05VYcqaA", 
            "title": "[COLOR aqua]Classic TV From 2004-2008[/COLOR]", 
            "fanart": "https://imgur.com/ptAQgTV.jpg", 
            "type": "channel", 
            "icon": "https://yt3.ggpht.com/ytc/AKedOLRhDzP3OMMNzJiSdRRltthKkHC3lA9JFMGOcHsx=s88-c-k-c0x00ffffff-no-rj", 
            "summary": "Classic TV From 2004-2008"
        }, 
        {
            "link": "UCNCAEXQK6M8wU0kOcFa6gng", 
            "title": "[COLOR aqua]Classic TV Channel[/COLOR]", 
            "fanart": "https://imgur.com/ptAQgTV.jpg", 
            "type": "channel", 
            "icon": "https://yt3.ggpht.com/ytc/AKedOLRhDzP3OMMNzJiSdRRltthKkHC3lA9JFMGOcHsx=s88-c-k-c0x00ffffff-no-rj", 
            "summary": "Classic TV Channel"
        }, 
        {
            "link": "UCD2x4VVYbPCELiGuVJxxAtQ", 
            "title": "[COLOR aqua]Diamond Painting[/COLOR]", 
            "fanart": "https://www.paintingwithdiamondskits.com/assets/images/Titanic%20Painting.jpg", 
            "type": "channel", 
            "icon": "https://www.craftyarts.co.uk/images/neon-wolf-diamond-painting-kit-p14879-48893_image.jpg", 
            "summary": "Diamond Painting"
        }, 
        {
            "link": "UCdCj47cPTxr7GxeaBNkRmCA", 
            "title": "[COLOR aqua]Divorce Court - Drama[/COLOR]", 
            "fanart": "https://live.mrf.io/statics/i/ps/www.eurweb.com/wp-content/uploads/2018/07/divorce-court1.jpg", 
            "type": "channel", 
            "icon": "https://artworks.thetvdb.com/banners/posters/78397-1_t.jpg", 
            "summary": "Courtroom-themed shows have been a staple of syndicated television for many years. One of the earliest and most enduring examples of this realtiy-based genre (long before the term \"reality TV\" had even been coined) is Divorce Court."
        }, 
        {
            "link": "https://youtube.com/playlist?list=PLXRbmDDj3R974GCfBN0t4_fbA0YmhPaCB", 
            "title": "[COLOR aqua]DIY Basics[/COLOR]", 
            "fanart": "http://diymag.com/ui/img/diy.png", 
            "type": "playlist", 
            "icon": "http://diymag.com/ui/img/diy.png", 
            "summary": "DIY Basics"
        },  
        {
            "link": "UCPDis9pjXuqyI7RYLJ-TTSA", 
            "summary": "Fail Army", 
            "type": "channel", 
            "icon": "https://imgur.com/RNd4Jfk.jpg", 
            "title": "[COLOR aqua]Fail Army[/COLOR] "
        }, 
        {
            "link": "https://youtube.com/playlist?list=PL74839542356C41F1", 
            "title": "[COLOR aqua]Hammer Horror / British Horror[/COLOR]", 
            "fanart": "https://i.pinimg.com/originals/93/eb/7e/93eb7ec83bc83bf99a143d0aff6892b0.jpg", 
            "type": "playlist", 
            "icon": "https://i.pinimg.com/originals/0d/2e/c1/0d2ec175b96421b0fa9b633ab2cb9c2d.jpg", 
            "summary": "Hammer Horror / British Horror"
        },
        {
            "link": "https://youtube.com/playlist?list=PLHn2WeTZ1k-Usm6dvM11_Z7oZ0hxh0hQn", 
            "summary": "How We Used to Live 1936 - 1953", 
            "type": "playlist", 
            "icon": "https://imgur.com/JfOCo3v.jpg", 
            "title": "[COLOR aqua]How We Used to Live 1936 - 1953[/COLOR]"
        }, 
        {
            "link": "UCqvjEkH_41m4DYaoNQwk4Bw", 
            "title": "[COLOR aqua]Hubble Space Telescope[/COLOR]", 
            "fanart": "https://media3.s-nbcnews.com/i/MSNBC/Components/Video/201804/hubble.jpg", 
            "type": "channel", 
            "icon": "https://amd.news/wp-content/uploads/2018/10/Hubble_Telescope.jpg", 
            "summary": "Nearly 400 years after Galileo first observed the heavens through a telescope, we continue to seek answers to age-old questions about the universe. And while the technology has evolved over the centuries, the inquiry remains essentially the same: What's out there, where did it come from, and what does it mean?"
        },         
		{
            "link": "UCl161UTYzPFVizGuZ_-cBNg", 
            "title": "[COLOR aqua]It's Movie Night[/COLOR]", 
            "fanart": "https://media3.s-nbcnews.com/i/MSNBC/Components/Video/201804/hubble.jpg", 
            "type": "channel", 
            "icon": "https://yt3.ggpht.com/ytc/AKedOLQb5_Kbmkc-zwDqH7UV4QNzUOEXGZXu9On43vSc=s176-c-k-c0x00ffffff-no-rj", 
            "summary": "It's Movie Night"
        }, 
        {
            "link": "UCdsvmOV_qYJUPqlUxs72Jtw", 
            "title": "[COLOR aqua]Jillian Michaels -  Fitness Expert[/COLOR]", 
            "fanart": "https://www.telegraph.co.uk/content/dam/health-fitness/2020/01/03/TELEMMGLPICT000218682757_trans%2B%2BBDCnIxthzPLaVuHdTEmpqAT2Xoxa7yV4D2t84fmmRZU.jpeg", 
            "type": "channel", 
            "icon": "https://www.telegraph.co.uk/content/dam/health-fitness/2020/01/03/TELEMMGLPICT000218682757_trans%2B%2BBDCnIxthzPLaVuHdTEmpqAT2Xoxa7yV4D2t84fmmRZU.jpeg", 
            "summary": "Jillian Michaels is one of the world's leading fitness experts, offering sample workouts of all kinds from her award winning My Fitness App: sweat, tone it up, and get beachbody ready with her beginner workouts, ab workouts, hiit workouts, booty workouts, total body toning, fat burning and strength training, weight lifting workouts, and workouts to lose weight."
        },
        {
            "link": "UCaj1WxrDXmI_fYHNKFAOGMQ", 
            "title": "[COLOR aqua]Mydoodads - Tips and hints for your tech stuff[/COLOR]", 
            "fanart": "https://imgur.com/IjDtgQ4.jpg", 
            "type": "channel", 
            "icon": "https://yt3.ggpht.com/a/AGF-l79XsCWmDSqswCg6GZN4QF543aKdgW3xtQ8RYQ=s288-c-k-c0xffffffff-no-rj-mo", 
            "description": "Tips and hints for your tech stuff"
        }, 
        {
            "link": "https://youtube.com/playlist?list=PLnPFRc-S1siV6ZvOkp1c5fdJoAvQb-XoC", 
            "summary": "Native American Movies", 
            "type": "playlist", 
            "icon": "https://i.ytimg.com/vi/hQ1W33gG9K0/hqdefault.jpg", 
            "title": "[COLOR aqua]Native American Movies[/COLOR] "
        },
        {
            "link": "https://youtube.com/playlist?list=PL1NbHSfosBuHInmjsLcBuqeSV256FqlOO", 
            "summary": "NHL Condensed Games", 
            "type": "playlist", 
            "icon": "https://imgur.com/hlmt3Mu.jpg", 
            "title": "[COLOR aqua]NHL Condensed Games[/COLOR]"
        },	
		{
            "link": "https://fuse99.com/xml19/now/Now.Thats.What.I.Call.Music.k19.json", 
            "title": "[COLOR aqua]Now That's What I Call Music[/COLOR]", 
            "fanart": "https://i.imgur.com/0BTRZmj.jpg", 
            "type": "dir", 
            "icon": "https://i.imgur.com/QDG5Umi.jpg", 
            "summary": "Now That's What I Call Music Playlists"
        },         
		{
            "link": "UCY7dD6waquGnKTZSumPMTlQ", 
            "summary": "The Oxford Union is the home of talks and debates by intriguing and influential people who shape our world, It has been established for 190 years, aiming to promote debate and discussion not just in Oxford University, but across the globe.", 
            "type": "channel", 
            "icon": "https://yt3.ggpht.com/ytc/AAUvwnhTpI3JXy4aNr-ITa3TSEjveAgkIax7BZ_86e10=s176-c-k-c0x00ffffff-no-rj", 
            "title": "[COLOR aqua]Oxford Union Debates[/COLOR]"
        }, 
		{
            "link": "https://youtube.com/playlist?list=PLfN2s0tjCSjB6jdTNl5amnMGima6wwDY6", 
            "title": "[COLOR aqua]Play For Today and BBC Dramas[/COLOR]", 
            "fanart": "https://artworks.thetvdb.com/banners/fanart/original/76376-2_t.jpg", 
            "type": "playlist", 
            "icon": "https://artworks.thetvdb.com/banners/posters/76376-2_t.jpg", 
            "summary": "Play For Today and BBC Dramas"
        },
		{
            "link": "https://youtube.com/playlist?list=PL7E7E067DD72542CB", 
            "title": "[COLOR aqua]Prisoner: Cell Block H - Soap, Drama (15) (1979-1986)[/COLOR]", 
            "fanart": "https://artworks.thetvdb.com/banners/fanart/original/76724-4_t.jpg", 
            "type": "playlist", 
            "thumbnail": "https://www.themoviedb.org/t/p/w220_and_h330_face/6Ve3tWclGpNqrE2uc82gosFnSKh.jpg", 
            "summary": "The lives of women behind bars in a female prison."
        },        
		{
            "link": "UCu4XcDBdnZkV6-5z2f16M0g", 
            "title": "[COLOR aqua]Real Stories[/COLOR]", 
            "fanart": "https://imgur.com/ptAQgTV.jpg", 
            "type": "channel", 
            "icon": "https://yt3.ggpht.com/ytc/AKedOLSy72RAEIIkHpzKW85NosXTHOdWRH6CdcRwI6zUNA=s176-c-k-c0x00ffffff-no-rj", 
            "summary": "Welcome to Real Stories, the home of award-winning and compelling documentaries you need to see. We will be uploading at least three full length documentaries a week from the best documentary producers on the planet."
        }, 
        {
            "link": "UC0uJKUXiU5T41Fzawy5H6mw", 
            "title": "[COLOR aqua]Scammer Revolts[/COLOR]", 
            "fanart": "https://i.ytimg.com/vi/oc8w_6_v958/maxresdefault.jpg", 
            "type": "channel", 
            "icon": "https://yt3.ggpht.com/a/AGF-l79sSXbyKcvj4N2AUOS2zTg53HJRuP6p8ND75g=s288-mo-c-c0xffffffff-rj-k-no", 
            "summary": "I call and exposed tech support scammers and IRS scammers while doing my best to make sure they can't scam any more innocent people, on this channel I also do tech videos and tutorials."
        }, 
        {
            "link": "https://youtube.com/playlist?list=PLOrCDDpk39gq3jG4ftOO9JXuCONU_p4nM", 
            "title": "[COLOR aqua]See The World[/COLOR]", 
            "fanart": "https://i2.wp.com/www.thinksmarterworld.com/wp-content/uploads/2018/05/planet-earth.jpg", 
            "type": "playlist", 
            "icon": "https://i.ytimg.com/vi/iaVMcVNaTjs/hqdefault.jpg", 
            "summary": "Alaska to Argentina and around the world by bike, travel videos documenting the trip"
        }, 
		{
            "link": "https://youtube.com/playlist?list=PLZTqAZSvzlVN8BXlq1EiyO6W2vLjTynOR", 
            "title": "[COLOR aqua]The best of soul train[/COLOR]", 
            "fanart": "https://i.ytimg.com/vi/UWHq3zOX59Q/maxresdefault.jpg", 
            "type": "playlist", 
            "icon": "https://i.ytimg.com/vi/UWHq3zOX59Q/maxresdefault.jpg", 
            "summary": "The best of soul train"
        },  
        {
            "link": "UCBKeZg1ZE83jG11nighqhig", 
            "title": "[COLOR aqua]The Good Old Days[/COLOR]", 
            "fanart": "https://imgur.com/ptAQgTV.jpg", 
            "type": "channel", 
            "icon": "https://yt3.ggpht.com/ytc/AKedOLSS3G6xml-MCkH8K4WsRvQZ1pbymi4Tc7dchjNl=s176-c-k-c0x00ffffff-no-rj", 
            "summary": "The Good Old Days"
        }, 
        {
            "link": "UCa8lOb_-AP7ZlaAE5IGzk4g", 
            "title": "[COLOR aqua]The Jerry Springer Show[/COLOR]", 
            "fanart": "https://artworks.thetvdb.com/banners/fanart/original/72548-1_t.jpg", 
            "type": "channel", 
            "icon": "https://artworks.thetvdb.com/banners/posters/72548-1_t.jpg", 
            "summary": "The Jerry Springer Show"
        }, 
        {
            "link": "https://youtube.com/playlist?list=PL_CKCv8OOPdToer7DLhEpBR2CwFHN4yRO", 
            "title": "[COLOR aqua]The Old Grey Whistle Test[/COLOR]", 
            "fanart": "https://imgur.com/qQxPsOl.jpg", 
            "type": "playlist", 
            "icon": "https://imgur.com/8r2aGJ6.jpg", 
            "summary": "The Old Grey Whistle Test (usually abbreviated to Whistle Test or OGWT) was a British television music show, it was commissioned by David Attenborough[1] and aired on BBC2 from 1971 to 1988. It took over the BBC2 late night slot from Disco 2, which ran between September 1970 and July 1971, while continuing to feature non-chart music."
        }, 
        {
            "link": "UCagoIYmo_gO1iVaCeeSikEg", 
            "title": "[COLOR aqua]This Week in Tech[/COLOR]", 
            "fanart": "https://s3.amazonaws.com/airtype-v3/images/projects/TN-logo.png", 
            "type": "channel", 
            "icon": "http://thetechtribune.com/wp-content/uploads/2017/08/Image-183.jpg", 
            "summary": "This Week in Tech"
        }, 		
		{
            "link": "UC88lvyJe7aHZmcvzvubDFRg", 
            "title": "[COLOR aqua]Timeline - World History Documentaries[/COLOR]", 
            "fanart": "https://imgur.com/ptAQgTV.jpg", 
            "type": "channel", 
            "icon": "https://yt3.ggpht.com/ytc/AKedOLRYmnyvVq1rICAuDvn0HQM5GldGKBeBSYy1YwJoCQ=s176-c-k-c0x00ffffff-no-rj", 
            "summary": "Timeline - World History Documentaries"
        }, 		
        {
            "link": "UCWwqHwqLSrdWMgp5DZG5Dzg", 
            "summary": "Easy DIY \"how to\" video tutorials. DIY Accessories, Make Up Tutorials, Life Hacks, Pranks, Home D\u00e9cor and and MUCH more! Make it easy.", 
            "type": "channel", 
            "icon": "https://yt3.ggpht.com/-EYSEUI_ro-I/AAAAAAAAAAI/AAAAAAAAAAA/37cDR36TXGM/s100-mo-c-c0xffffffff-rj-k-no/photo.jpg", 
            "title": "[COLOR aqua]Troom Troom - Life Hacks[/COLOR]"
        }, 
        {
            "link": "UC69uYUqvx-vw4luuX7aHNLQ", 
            "title": "[COLOR aqua]True Crime Daily[/COLOR]", 
            "fanart": "https://imgur.com/6D57vaa.jpg", 
            "type": "channel", 
            "icon": "https://imgur.com/6D57vaa.jpg", 
            "summary": "True Crime Daily delivers in-depth true crime sagas showcasing the very best of crime journalism. From unsolved murders to compelling mysteries, undercover investigations and shocking crimes caught on camera, TCD brings stories from across America to national attention."
        }, 
        {
            "link": "UCPJXfmxMYAoH02CFudZxmgg", 
            "summary": "TV For Cats, Dogs and Various Animals", 
            "type": "channel", 
            "icon": "https://cache.desktopnexus.com/thumbseg/732/732161-bigicon.jpg", 
            "title": "[COLOR aqua]TV For Cats, Dogs and Various Animals[/COLOR] "
        }, 
		{
            "link": "https://youtube.com/playlist?list=PLnfFnk2Gh8DcWKhyPxxj0tQfcDstynND_",
            "title": "[COLOR aqua]Willies YouTube Playlist[/COLOR]", 
            "fanart": "https://imgur.com/ptAQgTV.jpg", 
            "type": "playlist", 
            "icon": "https://imgur.com/tggpVhv.jpg", 
            "summary": "Willies YouTube Playlist"
        }, 
        {
            "link": "UCmXQRtLSFJC4v_pYXaM3DGQ", 
            "title": "[COLOR aqua]Classic Western Movies[/COLOR]", 
            "fanart": "http://sf.co.ua/13/07/wallpaper-2909947.jpg", 
            "type": "channel", 
            "icon": "https://yt3.ggpht.com/a/AATXAJxK6omBw-xsgRHfSxbkPo19jVAdDGeD1rPqj085=s144-c-k-c0xffffffff-no-rj-mo", 
            "summary": "Your home for full length western movies from the 1930s up to the present day."
        }, 
        {
            "link": "UCyJYCQ6WaEMhdZAuPo799bA", 
            "title": "[COLOR aqua]Western Movies[/COLOR]", 
            "fanart": "http://sf.co.ua/13/07/wallpaper-2909947.jpg", 
            "type": "channel", 
            "icon": "https://images.amcnetworks.com/blogs.amctv.com/wp-content/uploads/2012/12/cowboys-for-christmas-560.jpg", 
            "summary": "Western Movies"
        }, 
        {
            "link": "UCUlKudY9luAjzmzszG_sduw", 
            "title": "[COLOR aqua]Westerns on the Web YouTube Channel[/COLOR]", 
            "fanart": "https://i.ytimg.com/vi/AASyHD6n0Fg/maxresdefault.jpg", 
            "type": "channel", 
            "icon": "https://i.ytimg.com/vi/AASyHD6n0Fg/maxresdefault.jpg", 
            "summary": "Westerns On The Web is an Internet site for free family friendly streaming videos. Western Movies, TV shows episodes and Original Webcast Westerns. Classic Westerns full length and online to watch anytime."
        },
        {
            "link": "https://youtube.com/playlist?list=PLRBAaKUSr5_7PjqR8kf_Mix-8wS0ZfwwD", 
            "title": "[COLOR aqua]Bodyline (1984)[/COLOR]", 
            "fanart": "https://artworks.thetvdb.com/banners/fanart/original/80164-2_t.jpg", 
            "type": "playlist", 
            "icon": "https://artworks.thetvdb.com/banners/posters/80164-2_t.jpg", 
            "summary": "Dramatization of the 1932/33 Test cricket series between England and Australia. Played in Australia, the series gained notoriety in Australian and worldwide cricketing history for the fact that the English team (headed by captain Douglas Jardine) applied a bowling technique called \"leg theory\", or more commonly, Bodyline."
        }, 
        {
            "link": "https://youtube.com/playlist?list=PLcG66PDG1cyuZBuU7eeUh4b2nGkudDFRn", 
            "title": "[COLOR aqua]Wu Tang Collection - Kung Fu Movies[/COLOR]", 
            "fanart": "https://i.ytimg.com/vi/jYBBSE23kvA/maxresdefault.jpg", 
            "type": "playlist", 
            "icon": "https://pmcvariety.files.wordpress.com/2018/07/enter-the-dragon-bruce-lee.jpg", 
            "summary": "Wu Tang Collection - Kung Fu Movies"
        }, 
        {
            "link": "https://youtube.com/playlist?list=PLIRkl6t6mMd-DEfIlv0sW3T48BLbbZ6kw", 
            "title": "[COLOR aqua]Tombstone Territory - Western (1957\u20131960)[/COLOR]", 
            "fanart": "https://m.media-amazon.com/images/M/MV5BOGEzM2NkZTAtNDFjMC00MzUzLWIxZGMtMTQ1ZTk3NDJkODc5XkEyXkFqcGdeQXVyOTExNTg1NA@@._V1_.jpg", 
            "type": "playlist", 
            "icon": "https://artworks.thetvdb.com/banners/posters/76542-1_t.jpg", 
            "summary": "Tough Sheriff Clay Hollister keeps the law in Tombstone, Arizona with the support of his faithful Deputies and the Editor of the local newspaper."
        }
    ]
}